+8.28601154e-07
+8.06249761e-07
+8.09668571e-07
+8.17209236e-07
+8.13326193e-07
+8.26937283e-07
+8.58753140e-07
+8.59944039e-07
+8.06749720e-07
+8.10783129e-07
+8.42571192e-07
+8.27468967e-07
+8.25556530e-07
+8.16621304e-07
+8.29599603e-07
+8.09518803e-07
+8.51684379e-07
+8.25454213e-07
+8.51915711e-07
+8.12648069e-07
+8.46427924e-07
+8.10006014e-07
+8.05385726e-07
+8.66749832e-07
+8.57022920e-07
+8.03540116e-07
+8.56351511e-07
+8.27650608e-07
+8.06216527e-07
+8.46179568e-07
+8.46977501e-07
+8.36706896e-07
+8.55076669e-07
+8.29468927e-07
+8.35893563e-07
+8.60688862e-07
+8.39473851e-07
+8.58158884e-07
+8.20517864e-07
+8.21447378e-07
+8.60203304e-07
+8.55946390e-07
+8.10020491e-07
+8.19585468e-07
+8.29607353e-07
+8.44548630e-07
+8.31071783e-07
+8.47868003e-07
+8.35324297e-07
+8.08486907e-07
+8.32502756e-07
+8.64568922e-07
+8.28346620e-07
+8.32480554e-07
+8.26807124e-07
+8.13766552e-07
+8.48934824e-07
+8.05739337e-07
+8.21888990e-07
+8.35517252e-07
+8.00873205e-07
+8.18864960e-07
+8.62217354e-07
+8.31909668e-07
+8.37740470e-07
+8.25080119e-07
+8.36667204e-07
+8.06145857e-07
+8.47881430e-07
+8.62559564e-07
+8.27219842e-07
+8.29414681e-07
+8.30199916e-07
+8.18322109e-07
+8.33496088e-07
+8.27472305e-07
+8.48827579e-07
+8.06168197e-07
+8.33374695e-07
+8.61086976e-07
+8.44473531e-07
+8.45351889e-07
+8.41541739e-07
+8.57463896e-07
+8.22229480e-07
+8.49650949e-07
+8.08658809e-07
+8.47512560e-07
+8.52672929e-07
+8.37771620e-07
+8.46704063e-07
+8.32163723e-07
+8.73295514e-07
+8.15287887e-07
+8.08792564e-07
+8.45315698e-07
+8.22593195e-07
+8.52798346e-07
+8.09993322e-07
+8.40169052e-07
+8.02251684e-07
+8.01396474e-07
+8.18508723e-07
+8.50141905e-07
+8.52840455e-07
+8.52369973e-07
+8.40091034e-07
+8.39034633e-07
+8.18990392e-07
+8.30572946e-07
+8.25358858e-07
+8.25873843e-07
+8.18722963e-07
+8.36929858e-07
+8.07255768e-07
+8.51155710e-07
+8.02779079e-07
+7.99310961e-07
+8.10672468e-07
+8.57111758e-07
+8.44834274e-07
+8.03548194e-07
+8.55119922e-07
+8.18146300e-07
+8.14695003e-07
+8.24881169e-07
+8.41184715e-07
+8.51949961e-07
+8.08857334e-07
+8.12251443e-07
+8.62209784e-07
+8.30014688e-07
+8.22451062e-07
+8.39651253e-07
+8.33372193e-07
+8.34870717e-07
+8.45756151e-07
+8.49909621e-07
+8.44314301e-07
+8.38394813e-07
+8.25138138e-07
+8.21136020e-07
+8.51058722e-07
+8.63799723e-07
+8.36787023e-07
+8.32809224e-07
+8.23198673e-07
+8.35396645e-07
+8.02377515e-07
+8.26533512e-07
+8.22610727e-07
+8.73013488e-07
+8.20758753e-07
+8.51169492e-07
+8.26752400e-07
+8.31779549e-07
+8.41951299e-07
+8.31479216e-07
+8.22795956e-07
+8.21699685e-07
+8.10310474e-07
+8.43909218e-07
+8.32876810e-07
+8.54957379e-07
+8.18130104e-07
+8.01603606e-07
+8.37925581e-07
+8.63220822e-07
+8.66400312e-07
+8.62026433e-07
+7.97594267e-07
+8.32789114e-07
+8.51676946e-07
+8.33255014e-07
+8.50505083e-07
+8.21847442e-07
+8.11799778e-07
+8.30165962e-07
+8.36418916e-07
+8.18204672e-07
+8.28898273e-07
+8.08384721e-07
+8.56757929e-07
+8.11877929e-07
+8.11355313e-07
+8.46734969e-07
+8.49859038e-07
+8.33398186e-07
+8.69034312e-07
+8.26907753e-07
+8.61776150e-07
+8.29344202e-07
+8.58184620e-07
+8.25747741e-07
+8.32769265e-07
+8.35522848e-07
+8.35774210e-07
+8.09227483e-07
+8.59917919e-07
+8.46809017e-07
+8.25605472e-07
+8.03758992e-07
+8.57279463e-07
+8.31557365e-07
+8.49733384e-07
+8.04696878e-07
+8.12171338e-07
+8.45446876e-07
+8.53105192e-07
+8.26754311e-07
+8.10987227e-07
+8.57111891e-07
+8.19772111e-07
+8.41331935e-07
+8.05356660e-07
+8.40052462e-07
+8.50938838e-07
+8.08904818e-07
+8.29021877e-07
+8.19212625e-07
+8.34175974e-07
+8.27176887e-07
+8.17871409e-07
+8.01838062e-07
+8.57396064e-07
+8.30121183e-07
+8.37616828e-07
+8.49976907e-07
+8.44020343e-07
+7.91220063e-07
+8.06659695e-07
+8.41457254e-07
+8.60144390e-07
+8.09392906e-07
+8.20231815e-07
+8.16547016e-07
+8.42762166e-07
+8.14160538e-07
+8.29750849e-07
+8.22699621e-07
+8.41861655e-07
+8.50937656e-07
+8.57458664e-07
+7.97249244e-07
+8.17434765e-07
+8.51909808e-07
+8.19216343e-07
+8.44739808e-07
+8.73801333e-07
+8.28066941e-07
+8.45383178e-07
+8.51837936e-07
+7.97819301e-07
+8.01457524e-07
+7.98292047e-07
+8.43822775e-07
+8.37521960e-07
+8.17379064e-07
+8.47495980e-07
+8.22358271e-07
+8.23158386e-07
+8.26654293e-07
+8.02634031e-07
+8.37885986e-07
+8.43440557e-07
+8.20172644e-07
+8.45555022e-07
+8.21058532e-07
+8.40951031e-07
+8.19378034e-07
+8.37551017e-07
+8.41296331e-07
+8.50006580e-07
+8.42384097e-07
+8.50044040e-07
+8.61617245e-07
+8.61723476e-07
+8.09259985e-07
+8.38415892e-07
+8.33163337e-07
+8.23657410e-07
+8.35790322e-07
+8.62254786e-07
+8.15794716e-07
+8.18570000e-07
+8.20181283e-07
+8.34541577e-07
+8.62976066e-07
+8.55326712e-07
+7.97669174e-07
+8.25632991e-07
+8.27094224e-07
+8.43184239e-07
+8.11783954e-07
+8.36605845e-07
+8.24491737e-07
+8.12431842e-07
+8.34571010e-07
+8.41203800e-07
+8.36781862e-07
+8.22243455e-07
+8.34901988e-07
+8.32898621e-07
+8.33738542e-07
+8.24133654e-07
+8.52730260e-07
+8.03010173e-07
+8.27446430e-07
+8.45608130e-07
+8.36009641e-07
+8.24213802e-07
+8.11016508e-07
+8.25810016e-07
+8.25276383e-07
+8.50127344e-07
+8.40514463e-07
+7.96623792e-07
+8.57462117e-07
+8.29025349e-07
+8.52861737e-07
+8.02995314e-07
+8.64624016e-07
+8.36581314e-07
+8.51340682e-07
+8.38468776e-07
+8.54895400e-07
+8.27126890e-07
+7.97048400e-07
+8.50646703e-07
+8.69000042e-07
+8.34927133e-07
+8.30852213e-07
+8.50501797e-07
+8.07160312e-07
+8.54428297e-07
+8.49145328e-07
+8.29010065e-07
+8.42443829e-07
+8.25439858e-07
+8.13856429e-07
+8.32485092e-07
+8.40122126e-07
+7.89206877e-07
+8.20102656e-07
+8.14842543e-07
+8.10380822e-07
+8.62598979e-07
+8.04766323e-07
+8.56172753e-07
+8.28819237e-07
+8.23243555e-07
+8.46585265e-07
+8.35045720e-07
+8.33773168e-07
+8.51889940e-07
+8.18064093e-07
+8.29733243e-07
+8.46743860e-07
+8.40668550e-07
+8.59146395e-07
+8.66188743e-07
+8.03350873e-07
+8.11560946e-07
+8.56486411e-07
+8.09826073e-07
+8.66262566e-07
+8.41112366e-07
+8.65185810e-07
+8.05744128e-07
+8.47417198e-07
+8.19241886e-07
+8.17363432e-07
+8.34085087e-07
+8.55293214e-07
+8.20564760e-07
+8.12655176e-07
+8.64732852e-07
+8.26089678e-07
+8.60385337e-07
+8.34855408e-07
+8.17193072e-07
+8.55278056e-07
+8.24590372e-07
+8.49247021e-07
+8.35387433e-07
+8.33142815e-07
+8.17061764e-07
+8.02365756e-07
+8.32119011e-07
+8.60615125e-07
+8.32275365e-07
+8.14520773e-07
+8.25627632e-07
+8.36450267e-07
+8.31803260e-07
+8.26332257e-07
+8.44985687e-07
+8.50508640e-07
+8.57277173e-07
+8.54659672e-07
+7.99960385e-07
+8.37400673e-07
+8.20690401e-07
+8.30686984e-07
+8.10868713e-07
+8.48005395e-07
+8.11167221e-07
+8.52933943e-07
+8.47973876e-07
+8.28471213e-07
+8.44012340e-07
+8.31121997e-07
+8.12393793e-07
+8.76484397e-07
+8.11496681e-07
+8.01701526e-07
+8.60362011e-07
+8.41521559e-07
+8.41663676e-07
+8.66136228e-07
+8.52990644e-07
+8.11128748e-07
+8.29863691e-07
+8.20959273e-07
+7.88263546e-07
+8.32478105e-07
+8.42963549e-07
+8.50538132e-07
+8.09804207e-07
+8.06096143e-07
+8.25810919e-07
+8.18137344e-07
+8.42166406e-07
+8.27908995e-07
+8.56358478e-07
+8.14756141e-07
+8.46953227e-07
+7.92080383e-07
+8.40944183e-07
+8.47515177e-07
+8.68012022e-07
+8.06533441e-07
+8.11817190e-07
+8.28861271e-07
+8.53539668e-07
+8.22795949e-07
+8.15341246e-07
+8.33537005e-07
+8.56642732e-07
+8.12739638e-07
+8.36164726e-07
+8.40008160e-07
+8.54930511e-07
+8.52680240e-07
+8.16189446e-07
+8.58957145e-07
+8.47106081e-07
+7.98151236e-07
+8.78386686e-07
+8.06938123e-07
+8.13184983e-07
+8.61976695e-07
+8.42282909e-07
+8.01135617e-07
+8.12684937e-07
+8.61453676e-07
+8.30296733e-07
+8.67328070e-07
+8.54441490e-07
+8.12857366e-07
+8.06264196e-07
+8.12390481e-07
+8.49243275e-07
+8.61967264e-07
+8.48960116e-07
+8.11997188e-07
+8.19089179e-07
+8.43872976e-07
+8.42875745e-07
+8.38485113e-07
+8.29685808e-07
+8.23233051e-07
+8.34304365e-07
+8.59771165e-07
+8.63761103e-07
+8.17805012e-07
+8.07465969e-07
+8.22091739e-07
+8.44418708e-07
+8.23378666e-07
+8.21103247e-07
+8.40414945e-07
+8.28056698e-07
+8.24653460e-07
+8.38841508e-07
+8.08629701e-07
+8.48661914e-07
+8.01823214e-07
+8.48309110e-07
+8.20752151e-07
+8.21263079e-07
+8.40832752e-07
+8.16073460e-07
+8.12043278e-07
+8.36383913e-07
+8.03117639e-07
+8.36077103e-07
+8.44830571e-07
+8.08513172e-07
+8.21593980e-07
+8.43651559e-07
+8.23015187e-07
+8.35159740e-07
+8.16958514e-07
+8.12691664e-07
+8.56171134e-07
+8.10214905e-07
+8.68712186e-07
+8.72274741e-07
+8.57491727e-07
+8.12406466e-07
+8.50265178e-07
+8.54171882e-07
+8.54604937e-07
+8.24350654e-07
+8.38666512e-07
+8.32233865e-07
+8.49512464e-07
+8.23552572e-07
+8.22374175e-07
+8.43790536e-07
+7.94523417e-07
+8.10600675e-07
+8.34387824e-07
+8.28363445e-07
+8.42886631e-07
+8.56929331e-07
+7.96678410e-07
+8.50075940e-07
+8.55932861e-07
+8.30713310e-07
+8.31187615e-07
+7.94886959e-07
+8.27670766e-07
+8.53997193e-07
+8.13919265e-07
+8.05905715e-07
+8.05261302e-07
+8.32696425e-07
+8.36195484e-07
+8.38425408e-07
+8.08554895e-07
+8.08202586e-07
+8.74833891e-07
+8.64834798e-07
+8.31511487e-07
+8.34355010e-07
+8.32700171e-07
+8.15368861e-07
+8.36456563e-07
+8.70696385e-07
+8.10164967e-07
+8.22652426e-07
+8.21420955e-07
+8.09834273e-07
+8.51336010e-07
+7.99388951e-07
+8.58073993e-07
+8.14058601e-07
+8.46892798e-07
+8.37926377e-07
+8.54560127e-07
+8.09299591e-07
+8.27985559e-07
+8.24931778e-07
+8.45973192e-07
+8.09160088e-07
+8.33609764e-07
+8.24018910e-07
+8.29013783e-07
+8.10352195e-07
+8.12889074e-07
+7.96244167e-07
+8.06177332e-07
+8.05990303e-07
+8.47246339e-07
+8.30922583e-07
+8.15635994e-07
+8.24882411e-07
+8.27525187e-07
+8.35942447e-07
+8.33798156e-07
+8.51412872e-07
+8.27677439e-07
+8.67100211e-07
+8.24299485e-07
+8.00284742e-07
+8.35880335e-07
+8.59675216e-07
+8.06568186e-07
+8.10702648e-07
+8.16516164e-07
+8.13935641e-07
+8.36415269e-07
+8.27196488e-07
+8.58003984e-07
+8.54407228e-07
+8.13472017e-07
+8.47396074e-07
+8.24483065e-07
+8.54471744e-07
+8.46851260e-07
+8.18781994e-07
+8.09475669e-07
+8.02936868e-07
+8.01285160e-07
+8.36382624e-07
+8.01686252e-07
+8.55631258e-07
+8.43807165e-07
+8.32334125e-07
+8.30359182e-07
+8.65718871e-07
+8.00697136e-07
+8.26593529e-07
+8.47953989e-07
+8.71509298e-07
+8.14769699e-07
+8.40852284e-07
+8.17370801e-07
+8.32600485e-07
+8.29260797e-07
+8.38980261e-07
+8.03894699e-07
+8.32521649e-07
+8.23631220e-07
+8.52031690e-07
+8.60109897e-07
+8.33452942e-07
+8.54745380e-07
+8.32315415e-07
+8.23521660e-07
+8.56420470e-07
+8.70256119e-07
+8.73400308e-07
+8.17796433e-07
+8.31414252e-07
+8.64719327e-07
+8.36093096e-07
+8.06381620e-07
+8.58090466e-07
+7.99586043e-07
+8.25346550e-07
+8.47110119e-07
+8.24120082e-07
+8.02658396e-07
+8.36454065e-07
+8.41773432e-07
+8.56987616e-07
+8.17585720e-07
+8.14534611e-07
+8.11955292e-07
+8.51933311e-07
+8.07226463e-07
+8.12186137e-07
+8.70174779e-07
+8.46811927e-07
+8.10180590e-07
+7.99445523e-07
+7.94952513e-07
+8.66522787e-07
+8.38346569e-07
+8.48866774e-07
+8.25765807e-07
+8.43372869e-07
+8.50118418e-07
+8.47310782e-07
+8.53391802e-07
+8.17991728e-07
+8.16561953e-07
+8.19457379e-07
+8.57140019e-07
+8.52531593e-07
+8.24962296e-07
+8.13793106e-07
+8.23344322e-07
+8.29990945e-07
+8.52415639e-07
+8.26675920e-07
+8.37753558e-07
+8.59832700e-07
+8.41548972e-07
+8.47976241e-07
+8.13495267e-07
+8.13604235e-07
+8.14847516e-07
+8.13479188e-07
+8.40200321e-07
+8.60852695e-07
+8.07925413e-07
+8.40981294e-07
+8.19684196e-07
+8.31532593e-07
+8.57616922e-07
+8.11614692e-07
+8.23755622e-07
+8.46848041e-07
+8.55747023e-07
+8.51260843e-07
+8.08431453e-07
+8.18574673e-07
+8.70027765e-07
+8.34224281e-07
+8.54846285e-07
+8.39241675e-07
+8.48686454e-07
+8.41808354e-07
+8.29281625e-07
+8.25367384e-07
+7.96424249e-07
+8.15108353e-07
+8.27048072e-07
+8.39150058e-07
+8.20727749e-07
+8.40613287e-07
+8.50999904e-07
+8.48878146e-07
+8.11280093e-07
+8.41615769e-07
+8.12014374e-07
+7.99484782e-07
+8.48960640e-07
+8.14218629e-07
+8.31940440e-07
+8.51448509e-07
+8.18108048e-07
+8.30701983e-07
+8.15149612e-07
+8.52451668e-07
+8.06413929e-07
+8.33285514e-07
+8.22167585e-07
+8.23108461e-07
+8.26663000e-07
+8.43290622e-07
+8.36095868e-07
+8.08809006e-07
+8.24906980e-07
+8.32330369e-07
+8.25516721e-07
+8.47315066e-07
+8.30447034e-07
+8.45186066e-07
+7.95387590e-07
+8.55567822e-07
+8.46607185e-07
+8.36278266e-07
+8.22456682e-07
+8.46361865e-07
+8.45384467e-07
+8.20858529e-07
+8.64274154e-07
+8.15942194e-07
+8.42766278e-07
+7.94760480e-07
+8.29489846e-07
+8.38182262e-07
+8.52506232e-07
+8.30872463e-07
+8.42325076e-07
+8.65987920e-07
+8.37781334e-07
+8.53970001e-07
+8.35987004e-07
+8.53290832e-07
+8.25285097e-07
+8.42220212e-07
+8.44293535e-07
+8.50715635e-07
+8.17525749e-07
+8.36015349e-07
+8.23822070e-07
+8.08510508e-07
+8.25055184e-07
+8.36003842e-07
+8.53496483e-07
+8.65397150e-07
+8.55719090e-07
+8.17396455e-07
+7.90235604e-07
+8.29177586e-07
+8.42756057e-07
+8.53012857e-07
+8.52434314e-07
+8.21685163e-07
+8.59650900e-07
+8.38294427e-07
+8.28527077e-07
+8.59491279e-07
+8.11539715e-07
+8.33158914e-07
+7.99913798e-07
+8.29476576e-07
+8.53402779e-07
+8.50579452e-07
+8.48970337e-07
+8.40052594e-07
+8.31949338e-07
+8.30855154e-07
+8.22260174e-07
+8.52186492e-07
+8.07679327e-07
+8.06123571e-07
+8.34118317e-07
+8.29140849e-07
+8.37965597e-07
+8.44683092e-07
+8.08589792e-07
+8.54289261e-07
+8.24860396e-07
+8.26794024e-07
+8.37342515e-07
+8.18243154e-07
+8.38376847e-07
+8.24288597e-07
+8.57463217e-07
+8.50250820e-07
+8.19184565e-07
+8.25122088e-07
+8.00356691e-07
+8.20952634e-07
+8.42408128e-07
+8.53578891e-07
+8.64215123e-07
+8.66506760e-07
+8.69938109e-07
+8.07624778e-07
+8.51546116e-07
+8.24673812e-07
+8.06663297e-07
+8.61499937e-07
+7.96827409e-07
+8.62613789e-07
+8.23024478e-07
+8.42831035e-07
+8.12708511e-07
+8.09702911e-07
+8.33305243e-07
+8.39376588e-07
+8.49321975e-07
+8.43806810e-07
+8.25635547e-07
+8.09222966e-07
+8.65574478e-07
+8.36385097e-07
+8.55630430e-07
+8.21157174e-07
+8.12327024e-07
+8.41088310e-07
+8.57850639e-07
+8.31691635e-07
+8.57729132e-07
+8.49331601e-07
+8.56267939e-07
+7.95052949e-07
+8.60682954e-07
+8.16615383e-07
+8.22239016e-07
+8.29445928e-07
+8.37758439e-07
+8.38577533e-07
+8.54293715e-07
+8.39694745e-07
+8.09011680e-07
+8.39844132e-07
+8.23772862e-07
+8.41316625e-07
+8.50882910e-07
+8.09958630e-07
+8.02086201e-07
+8.52495761e-07
+8.11653752e-07
+8.57784598e-07
+8.55402464e-07
+8.59725866e-07
+8.06501563e-07
+8.25214512e-07
+8.22233079e-07
+8.46470966e-07
+8.52096038e-07
+8.03466365e-07
+8.21637173e-07
+8.29451582e-07
+8.26539278e-07
+8.04156829e-07
+8.61174984e-07
+8.56882764e-07
+8.29088814e-07
+8.01622791e-07
+8.54551934e-07
+8.59465933e-07
+8.21962907e-07
+8.35410654e-07
+8.11959486e-07
+8.40162007e-07
+8.31194281e-07
+8.06046489e-07
+8.37987274e-07
+8.15294447e-07
+8.45181051e-07
+8.41372354e-07
+8.49378452e-07
+8.23221616e-07
+7.92896772e-07
+8.39710700e-07
+8.20955055e-07
+8.23902979e-07
+7.89161190e-07
+8.34842471e-07
+8.32185847e-07
+8.69339472e-07
+8.56550545e-07
+8.15990206e-07
+8.48231869e-07
+8.48041786e-07
+8.68122709e-07
+8.43761038e-07
+8.24519470e-07
+8.34176449e-07
+8.56253970e-07
+8.62304073e-07
+8.57814248e-07
+8.32773369e-07
+8.22286391e-07
+8.50888035e-07
+8.33805095e-07
+8.38915449e-07
+8.30617572e-07
+8.24056424e-07
+8.06367119e-07
+8.40314418e-07
+8.36418399e-07
+8.18262310e-07
+8.38249851e-07
+8.47298531e-07
+8.20652732e-07
+8.20235427e-07
+8.41234619e-07
+8.54116265e-07
+8.15422604e-07
+8.61375315e-07
+8.49876363e-07
+8.19040427e-07
+8.16913292e-07
+8.29845483e-07
+8.12936314e-07
+7.91673679e-07
+8.06222087e-07
+8.55902056e-07
+8.46407360e-07
+8.04185775e-07
+8.13140144e-07
+8.24374775e-07
+8.67257802e-07
+8.63494079e-07
+8.39845610e-07
+8.08912065e-07
+8.64915440e-07
+8.22468199e-07
+8.55918946e-07
+8.17751923e-07
+8.18064870e-07
+8.42287761e-07
+8.20523287e-07
+8.29561904e-07
+8.40172147e-07
+8.46143505e-07
+8.14907705e-07
+8.66165732e-07
+8.34626915e-07
+8.48074415e-07
+8.35897422e-07
+8.39575517e-07
+8.66191662e-07
+8.52249930e-07
+8.39678742e-07
+8.30426778e-07
+8.30388334e-07
+8.44983637e-07
+8.26986005e-07
+8.43949372e-07
+8.68911214e-07
+8.41277463e-07
+8.24093606e-07
+8.23520059e-07
+8.10404353e-07
+8.47560008e-07
+8.37667898e-07
+8.38049851e-07
+7.98066866e-07
