+5.87230007e+03
+2.23028984e+04
+1.00500443e+04
+3.46731422e+03
-8.31185957e+03
+1.43327257e+04
-6.81395502e+03
+4.64815806e+04
+6.34132447e+04
-1.16828705e+04
+3.14710304e+04
+1.95374053e+03
+6.36543590e+03
+5.24432612e+04
-5.54253208e+04
-5.19644806e+04
-7.01593508e+04
+3.80950326e+04
+3.00043910e+04
+4.45316640e+04
+6.78438335e+04
+3.26324524e+04
-4.10047640e+03
+3.01625017e+04
-4.49063755e+04
+1.44055951e+04
-4.11852634e+04
+5.71002177e+04
+2.80603141e+03
-8.65909097e+03
-2.53108539e+04
+3.07881058e+04
-4.61955952e+03
+6.38677927e+03
-6.96705609e+04
+1.20251420e+04
+1.19698621e+04
+1.16120437e+04
+5.85129644e+04
+1.90984554e+04
-1.44793229e+04
-7.60572952e+03
+2.06601929e+04
-5.58917311e+04
+1.73152111e+04
+1.84015216e+04
-3.12960056e+04
-4.42364308e+04
-1.88439618e+04
-1.52785911e+04
+7.66449604e+03
-7.62742796e+03
+7.53904091e+04
-4.89119415e+04
-3.11865552e+04
-4.00573604e+04
+1.57984214e+04
-2.65779790e+04
-3.80186091e+03
-2.75549938e+04
-3.94510196e+04
-4.71822359e+04
+1.62820725e+04
-4.21096845e+04
-3.25993420e+04
-1.30999782e+04
+3.60394347e+04
-4.90796858e+04
+3.82160981e+04
-4.82024366e+04
+6.84192092e+04
-3.82328204e+03
+6.88144000e+04
+1.10386159e+04
+2.46926561e+04
-6.26783860e+04
-2.21924799e+04
-4.54704619e+04
-2.05024095e+04
-4.49572891e+04
-1.92762073e+04
-9.03717100e+03
-5.56943280e+04
+2.09146085e+04
+7.30268932e+03
-2.51057681e+04
+3.03236892e+03
-5.03872068e+04
+8.79000683e+03
+5.44869100e+04
-1.94195387e+04
+1.73026636e+04
-4.26088113e+04
+2.30304234e+04
-2.26593254e+04
-3.65971390e+04
+8.60178478e+03
-7.04733667e+04
+3.77054620e+04
-8.03704280e+04
+1.88430362e+04
-2.39933617e+04
+2.55913177e+04
+6.24675183e+04
-2.62303685e+04
+8.75158783e+03
+1.03840470e+04
+7.65245033e+03
-3.01749284e+04
+6.06337347e+04
-6.09511068e+03
+3.88006003e+04
+2.03941684e+04
-2.12866889e+04
+3.50576601e+04
-9.95908459e+03
+4.57080950e+04
+8.96742352e+03
+4.50350372e+04
+2.05308789e+04
+2.42014320e+04
+6.05112740e+02
+6.01313079e+04
+1.45361720e+04
-7.84468147e+03
+1.14148726e+04
-7.03590289e+04
-2.00448754e+04
+1.63995538e+04
-2.25461982e+04
+1.09418832e+04
-6.48954274e+03
-4.20479068e+04
-2.01490391e+04
+6.49743880e+03
+9.42109319e+03
+7.27824663e+03
+1.57200871e+04
+1.56780390e+04
-7.21064215e+03
+4.90192940e+04
-1.30347997e+04
-7.63272002e+03
+4.69348718e+04
+3.49485740e+04
+2.08581862e+04
-4.84195484e+04
+5.27291587e+04
+2.28754974e+04
+8.56018955e+04
-4.04992678e+04
+4.31108768e+04
-3.78570882e+04
+1.21421393e+04
-4.46682725e+04
+3.85682716e+04
+3.48042135e+04
+6.64252969e+03
-1.04021918e+04
-5.50359875e+04
+2.05192915e+04
-5.03961894e+03
+2.39870255e+04
+4.28137917e+04
+6.90686320e+04
+4.13561602e+04
-7.48541011e+04
-1.47576766e+04
+2.45371531e+04
-3.74972412e+04
+1.66464562e+03
-5.77102066e+04
-3.33462952e+04
-6.93496020e+04
+3.23751521e+04
-2.98702715e+04
-1.58325269e+04
+5.43686332e+04
+2.30694714e+04
-6.49246352e+04
-3.71060811e+04
+1.23550069e+04
+8.58134649e+03
-2.88188100e+04
+5.67722694e+04
+1.17597183e+04
+3.91157690e+03
+9.42057525e+03
+2.39423873e+04
-1.90551799e+04
-9.31195713e+03
-3.14527418e+04
-3.39450106e+04
+5.84863865e+04
+2.56524987e+04
-7.61233772e+02
-3.00954548e+04
-2.63603160e+04
-5.85020046e+04
-7.52801927e+03
-1.98714779e+04
+2.11949261e+04
-1.33427578e+04
-3.59932295e+04
-6.84000120e+04
-5.48697603e+04
+1.93070365e+04
-5.16874138e+03
+4.53104005e+03
+4.86476977e+04
+7.64394706e+04
-3.22495700e+04
+1.84144451e+04
-2.53778242e+04
-6.96364159e+04
+2.78095794e+04
-1.93802525e+04
-1.19294617e+04
+8.11468269e+03
+3.81955005e+04
+1.32865506e+04
+4.38163214e+04
-2.46344441e+04
+3.38407511e+04
-3.39532954e+04
+6.04213876e+04
+1.85517661e+04
-3.15372502e+04
+6.00113510e+04
+2.60533747e+04
-2.68313236e+04
-3.18864444e+04
+2.04903360e+03
-6.64061810e+04
-3.15964357e+04
-9.04202534e+03
-1.34833065e+04
-4.19556605e+03
-2.44604083e+04
+8.41675993e+03
+4.30094801e+04
-4.51897877e+04
+1.65233063e+03
-4.31303524e+04
+2.19950161e+04
-1.02259137e+04
+7.35940483e+03
-3.54862914e+04
-4.10010321e+04
-4.82707922e+02
-1.38739032e+04
+5.81536945e+04
+2.87122568e+04
+2.63117130e+04
+4.82588030e+04
-5.09756128e+04
+4.93169976e+03
+9.00305649e+03
+6.26996895e+04
-2.25456954e+04
-2.84574854e+04
-4.84652197e+04
-7.13114648e+04
+5.47193660e+04
+1.71524193e+04
+3.20050815e+04
-2.40248205e+04
+9.18717224e+03
-5.65680650e+04
-1.13535395e+03
+6.83033969e+04
+4.40205710e+04
-1.55686920e+04
+6.18984752e+04
-2.88418761e+04
+5.94417168e+04
+5.77048469e+04
+3.30432915e+04
+1.35898590e+04
+4.45622116e+04
-2.23685449e+04
+4.11164577e+04
+1.20188733e+04
-7.31536270e+04
-1.64939478e+04
-4.06150669e+04
+7.02317047e+04
-1.69233149e+03
-1.45993002e+03
+1.52682627e+04
-1.30426642e+04
-4.31146664e+04
+3.59665308e+04
-3.43194972e+04
+7.52515219e+02
-2.93033379e+04
-4.86504029e+04
+4.21013838e+04
+6.75148263e+04
+6.24710276e+04
+5.03527479e+04
+3.05140925e+04
-1.74536152e+04
-5.17320591e+04
-1.05924341e+04
-2.83787973e+04
-4.17561677e+04
-5.94408351e+04
+2.45132101e+04
-7.47171605e+04
+3.02292827e+04
-4.03147840e+04
-5.30536637e+04
-5.07020246e+04
+1.84587604e+04
-2.73533242e+04
-8.14937674e+03
+5.40023040e+03
+4.23357777e+04
+2.34859139e+04
-2.35381557e+04
-4.45057205e+04
-5.70195751e+04
-2.02669657e+04
-2.53679223e+04
-3.96791934e+03
+1.89294130e+04
+2.08015250e+04
-2.17551872e+04
-1.34423540e+04
-3.62049657e+04
+3.11748060e+04
-5.80261027e+04
+2.03218660e+04
+3.07988655e+04
+3.01532596e+04
-2.50623975e+04
-1.37146778e+04
+8.26742746e+03
-2.32754880e+04
-1.37359569e+04
-3.36398303e+04
-3.65845278e+03
-6.06673694e+04
+3.36455466e+04
-5.24822351e+04
+1.75942667e+03
-2.11697991e+04
+8.36193823e+03
+6.16282747e+04
+1.39736096e+04
-6.43592784e+04
-6.96214002e+03
+3.87514059e+02
+4.43202346e+03
+1.89876631e+04
-2.32262127e+04
-4.31776627e+04
-1.16322875e+04
+6.04361420e+04
-3.49860959e+04
+5.04975820e+04
+3.50248641e+03
-4.03566283e+03
+4.54168187e+04
-3.73595859e+03
+2.46447453e+04
-1.04269454e+04
+4.98460165e+04
+1.88930940e+04
+2.05850944e+04
-1.83327582e+04
+2.82864462e+04
+1.52339575e+04
-2.88127404e+04
-3.94844444e+04
+3.38092386e+04
+6.27490762e+04
-3.82589132e+03
+1.04414316e+04
+4.02472534e+04
-3.90638891e+03
+5.87277020e+04
+8.06328933e+03
+3.56540287e+04
+4.98589235e+04
+3.44827667e+04
-3.85979821e+04
+1.27323077e+04
-1.00568466e+04
-5.57547972e+04
-7.98743321e+03
-2.50353925e+04
+4.05009314e+04
-6.39456382e+04
+6.19137740e+04
-1.51164589e+04
-1.47352324e+04
-7.12736592e+04
-3.46241641e+04
-9.41861645e+03
+5.52036806e+04
-4.92528128e+04
+5.78806142e+04
+4.40773359e+04
-4.68121633e+03
-1.84522649e+04
-2.84545127e+04
+1.11002055e+04
-6.61662223e+04
-7.15064604e+04
-6.51303075e+03
-5.42703812e+04
-2.76854329e+04
-3.01864706e+04
-2.76635226e+04
-4.42976521e+04
-7.51957658e+04
-4.58886365e+04
+1.13071748e+04
+6.66763095e+04
+7.69754895e+04
-1.02417607e+04
-3.71391753e+04
+1.41449745e+04
-3.63988605e+02
+7.40467730e+04
-5.62919035e+04
+3.08219313e+04
-2.18616888e+04
-2.78083821e+04
+1.70014818e+04
-2.62933464e+04
+1.81396479e+04
+2.09356009e+03
-7.84375173e+03
+5.07845153e+03
-2.24794913e+04
+2.17184094e+04
-8.23190494e+03
-1.53611156e+04
+3.77232098e+04
+5.34354252e+04
-6.03616252e+04
-2.90417589e+04
-1.57855869e+04
+3.50026476e+04
+7.32737023e+04
+6.56089728e+04
+4.94421247e+04
-2.06442801e+04
+7.76214044e+04
-2.63954398e+04
-4.72784516e+04
+5.94338828e+04
-2.86155628e+04
+1.98380972e+04
-5.81543366e+04
+2.47721618e+04
+4.58329232e+04
-2.40146149e+04
-1.29584413e+04
-1.38253914e+04
+2.76583143e+04
-2.79206473e+04
-3.75556260e+04
-6.13645090e+03
-2.09870713e+04
+4.00248064e+04
-2.82230628e+04
+2.48029502e+02
+5.77144954e+04
+1.53554745e+04
+4.24219560e+04
+5.70427897e+04
+2.71462908e+04
+2.04465927e+04
+6.48605164e+04
+7.91950257e+04
-5.30218736e+03
-5.54379406e+04
-2.22487733e+04
-3.92698776e+04
-8.02087998e+03
-4.40269388e+04
+1.00967181e+04
-1.11821836e+04
+4.76023699e+04
+6.52937358e+04
+5.54893615e+03
-2.35805856e+04
+9.31069838e+03
+4.89945437e+04
-1.02032084e+04
+5.65463465e+03
-2.39240736e+04
-3.53994192e+03
-9.66874802e+03
-2.74369493e+04
+1.02019335e+03
-1.87171267e+04
-1.35031169e+04
+2.70878418e+03
+2.71679419e+04
-1.70165289e+04
+5.27838052e+04
+4.18358375e+04
-5.96053348e+04
-2.73346675e+04
-4.99665720e+03
-4.66313533e+04
-1.59156280e+04
+2.49841225e+04
+1.98158266e+04
+1.37991397e+04
+2.23884393e+04
-3.28943152e+04
-1.61759905e+04
+1.73842623e+04
+4.51203498e+04
+3.56422240e+03
-2.28160439e+04
-6.48593307e+04
+2.28919191e+04
-7.78630410e+04
-1.33002347e+04
+4.52815595e+03
+5.27254552e+04
-4.99893519e+04
-1.07007407e+04
-6.90356635e+04
-1.60167854e+04
+1.33455845e+04
-2.37556292e+04
-3.10143430e+04
-4.46896506e+04
+8.88022099e+03
+2.07452909e+04
+1.82322127e+04
+5.87310164e+04
-8.21435960e+04
+1.46646372e+04
+9.51837359e+03
+9.20233203e+03
+6.36889762e+04
-7.14634219e+04
+2.13823626e+04
+3.46754270e+04
+1.77389671e+02
-1.72266565e+04
+3.13576281e+04
-4.77869228e+04
-4.80100312e+03
+2.85555763e+03
+2.05776063e+04
-4.96756898e+04
-2.92938319e+04
-8.43314344e+03
+1.30506205e+04
+4.62427575e+04
+1.18634889e+04
-4.18161857e+04
+6.97114938e+04
+4.36241677e+04
+7.71379106e+02
+5.24939025e+04
+3.21945381e+03
+5.30316442e+04
+3.73785826e+04
+6.53337975e+04
+5.30829109e+04
-6.32041100e+04
-3.55213351e+04
-1.21100983e+04
+6.14459865e+04
-2.14458369e+04
-3.92753742e+04
+4.49320216e+04
-5.59896849e+03
+5.04467500e+04
-3.94034502e+04
+1.66499681e+04
-5.05522901e+03
-5.24709162e+04
+2.08516963e+04
-2.64962504e+04
-6.26700611e+04
-5.80128579e+04
-5.63878115e+04
+4.99345928e+04
+2.48098326e+04
+4.85605956e+04
+1.70965349e+04
+2.91150375e+03
-2.14741265e+04
+8.38891237e+04
-1.49681006e+04
-2.84274117e+03
-1.26584134e+04
+7.04317198e+04
-3.67512720e+04
-1.75131806e+04
+1.97091325e+04
-5.58134154e+04
+1.09268771e+04
-2.02519385e+03
-2.20069231e+04
-2.79444539e+04
+7.82729726e+02
-1.31556540e+04
-3.13508846e+03
-1.72609007e+04
+6.55690484e+04
-4.26294456e+04
-4.79992718e+04
-1.62457147e+04
+9.38682994e+03
+1.61075791e+04
-9.44128717e+03
+8.69682920e+04
-1.69252855e+04
+2.40521795e+04
+1.54002962e+04
+3.51538977e+04
+6.87405326e+04
+4.76289511e+04
+2.89855599e+04
+2.07969767e+04
-1.75771883e+04
-4.04714636e+04
-5.57008016e+04
-2.91831387e+04
-6.50964171e+03
+2.23012813e+03
+3.02908433e+04
+6.28049318e+04
-4.53889667e+04
-4.75166149e+04
+8.33430693e+03
+2.63098614e+04
+3.95787882e+04
+5.69335432e+04
+7.20961393e+04
-1.01841715e+04
-1.29658471e+04
-4.11294726e+04
+1.93216388e+04
+1.58700423e+04
+4.27356624e+04
-4.89019462e+04
-5.54327798e+01
+8.72320631e+03
-2.91668053e+04
-3.85001969e+04
+4.31342675e+04
-5.82058121e+04
-2.59978745e+03
-4.58990646e+04
-3.19211574e+03
+7.03347814e+04
-8.46693853e+03
+4.09166310e+04
-4.57304245e+04
-2.37045109e+04
-1.01382380e+04
-1.04777593e+04
+1.79590060e+04
-1.63714271e+04
+2.27789389e+04
+1.45060361e+04
-1.00016250e+04
-6.49013276e+03
+1.14747378e+04
-5.39755648e+04
+3.66572549e+04
+1.66799790e+04
+2.45797598e+04
+3.68043546e+03
-4.68671209e+04
-9.71610710e+03
-9.74712585e+03
-1.85605739e+04
-6.58046486e+04
+2.50996458e+04
-4.63464906e+04
+1.20161724e+04
+2.03420429e+04
+1.47443040e+04
+6.27758604e+04
-4.87575931e+04
+4.22673867e+04
-6.53624018e+04
+3.80100526e+03
-9.62451315e+03
+1.54982175e+03
-1.47370946e+04
-3.49153555e+04
-6.99323934e+04
+2.73616958e+03
+3.86341166e+04
-1.36225305e+04
-2.97887688e+04
-5.12452146e+04
-5.14766245e+04
-2.92992638e+04
-4.85320001e+04
-2.59814435e+04
-5.59475173e+04
-5.60772659e+04
+4.09671198e+04
-3.76758204e+04
+6.06885476e+03
+2.94717571e+04
-4.50924319e+03
-3.98200300e+04
-3.35173361e+04
-6.78982454e+03
+2.48421856e+03
-1.65890296e+04
+3.15671776e+04
+2.69341245e+04
+5.46216178e+04
-6.50108995e+04
+4.84875587e+04
-1.11569841e+04
+4.49359830e+04
+2.08483242e+04
+7.36812628e+04
+2.80059003e+04
-1.46904282e+04
+9.38391494e+02
-1.35813717e+04
-1.42407931e+04
-2.60697180e+04
-8.25561291e+01
+1.92094407e+04
-2.41328978e+04
+1.72063337e+03
-4.55536727e+04
-3.90409323e+04
-6.14813091e+04
+6.51800874e+04
-8.03675911e+04
-3.59805768e+04
+1.11026577e+04
-5.21349413e+04
+4.60730050e+04
+2.35522852e+04
+6.34441060e+04
+1.54061664e+03
-2.10930458e+04
+4.81419995e+03
+5.46349397e+04
+2.20985546e+03
-2.47635266e+04
+4.33455839e+04
-1.37256374e+04
-8.61343866e+04
-2.63388869e+04
-1.93364064e+04
+4.18301813e+04
-3.70711878e+03
-5.33438701e+03
-1.81823852e+04
+4.56085742e+04
+5.75290516e+04
+7.74008550e+04
-1.30796887e+04
+6.36168910e+04
+3.11556863e+04
+1.83027566e+04
-2.74921183e+04
-3.19218164e+04
-3.79218893e+04
+5.28044375e+04
-2.27854451e+04
-4.97460505e+03
-1.03376607e+03
+2.94461150e+04
+3.93501440e+04
-4.29454815e+04
-7.15253990e+03
+3.98754078e+04
+3.60042141e+04
-4.83270175e+04
-3.92646048e+04
-2.13572202e+04
-5.29235192e+04
-7.92516324e+03
-4.76172245e+04
+7.32386217e+03
-2.66687081e+04
+1.05792722e+04
-4.60597907e+04
+6.82605477e+04
+5.49931982e+04
-1.22914541e+04
-2.81417995e+04
-2.64102337e+04
-2.38295126e+03
-6.24983952e+04
+1.42950780e+04
-1.07769213e+04
-1.35790161e+04
+3.54044350e+04
+2.29056125e+04
+6.04968072e+04
-1.39218998e+04
+4.83273589e+04
+2.97312509e+04
-1.51712943e+04
+1.37144636e+04
-2.15894494e+04
+4.36432517e+04
-4.66770787e+04
-3.18375210e+04
-3.68143735e+04
-1.01796945e+04
+2.70412137e+04
+1.73020056e+03
-2.79982061e+02
-8.85927069e+04
-7.34225311e+03
-5.60916187e+04
-3.11319611e+04
+5.44282843e+04
-3.12733686e+04
+4.07166647e+04
+3.38394003e+04
-3.88697081e+04
+1.13337244e+04
-4.61928185e+04
+2.41231037e+04
+1.41709048e+04
+3.40825615e+04
-1.64578219e+03
+5.23827720e+04
-5.96704008e+04
-2.26451548e+04
+2.18236029e+04
-8.53889030e+03
-3.56421485e+04
-4.66800437e+04
+3.67393771e+04
-2.72932884e+03
+4.58048835e+04
+2.60659015e+04
-1.03511346e+04
-1.28019781e+04
+2.15795376e+03
+4.66673064e+04
+2.61446250e+04
-7.95778185e+04
+2.01948980e+04
+5.29815391e+04
+2.22591345e+04
-3.58172196e+04
-1.61783777e+03
-4.18800012e+04
-1.39724455e+04
+5.61961066e+04
+5.34910815e+04
-2.26339371e+04
-1.68401819e+04
+9.80710731e+03
+6.42428136e+04
-4.11750434e+04
-2.48642813e+04
+4.43571398e+04
-1.24171614e+03
+4.82705453e+04
-3.41639370e+04
+3.45717229e+03
-1.79771747e+04
-1.95001833e+04
-4.92854522e+03
-7.64630888e+03
-1.52930392e+04
+5.17333826e+04
+2.52625726e+04
+2.40851499e+04
-2.26995517e+04
+9.10472901e+03
+3.04451314e+04
+3.24584883e+04
-1.57396516e+04
+3.07665779e+04
+2.61027375e+04
-4.04650067e+04
+4.17885635e+04
-5.27514292e+03
-1.10276265e+03
-4.66790831e+03
+7.26809852e+03
+1.32663661e+04
-4.69769338e+02
+4.22729283e+04
+1.28996417e+04
-9.34294425e+03
-8.73264159e+03
+3.39586252e+04
-1.63298296e+04
-3.11364583e+04
-5.75464618e+04
+4.46212078e+04
+5.10058008e+04
-4.48157683e+04
-1.79197893e+04
-3.62458473e+04
-4.55600118e+04
+4.79402491e+04
-5.81637658e+04
+7.04738405e+04
-4.92660593e+04
+4.18044232e+04
+6.20152891e+03
-1.25450948e+04
-1.59962977e+04
+2.79939017e+04
-1.88443111e+04
+1.68962434e+04
+2.98052315e+03
-1.20869502e+02
+4.77728673e+04
+5.52949286e+03
+3.58308444e+04
+2.39800173e+04
-6.26775747e+04
+2.95095192e+04
-3.16692945e+04
+4.85236154e+04
-6.01019790e+04
-1.84227591e+04
-4.88375250e+04
-1.76885509e+03
+3.64518322e+04
-2.02957616e+04
-4.05808543e+04
-1.73178685e+04
+3.46542164e+04
-4.28231688e+04
-2.95654912e+04
-5.45893693e+04
+2.17843408e+04
-1.10852989e+04
-1.85518704e+04
+2.36434061e+04
-1.80358588e+04
+2.32360699e+04
+3.49185487e+04
-3.08766682e+04
+6.64584194e+04
-3.77693300e+04
-2.29587283e+04
-3.69235776e+04
-1.59236146e+04
-1.74452275e+03
+2.06075757e+03
+4.14067409e+04
+4.64005027e+04
-3.04468221e+04
+1.37144569e+04
-4.69773874e+04
-3.68499120e+03
-1.99701634e+04
-1.98309302e+04
-2.99538880e+03
+2.45043905e+04
-5.52565199e+04
+4.59885574e+04
+2.51915826e+04
-3.57426716e+04
+5.60266071e+04
+4.12413325e+02
+8.95032808e+04
-3.34623089e+04
+3.80773979e+03
-2.18505682e+04
-2.08722319e+04
+1.07406961e+04
+5.32173294e+04
+3.39332187e+04
+2.37500259e+04
+5.68338385e+03
+5.27438172e+04
-4.64312419e+02
+4.39148505e+04
+3.70157833e+04
-3.11610896e+04
+3.01361216e+04
-7.53658363e+04
-1.92965880e+04
-3.03708174e+04
+1.35530079e+03
+2.50897324e+04
-4.78506755e+04
+8.41411477e+02
+5.59627773e+04
-2.95600354e+04
+1.95625302e+04
