+8.11548309e-07
+8.60552402e-07
+8.66325781e-07
+8.85037982e-07
+8.70603887e-07
+8.63666605e-07
+8.63067838e-07
+8.37265062e-07
+8.20929499e-07
+8.07151837e-07
+8.64837349e-07
+8.70709662e-07
+8.34361322e-07
+8.57964765e-07
+8.43912214e-07
+8.59555488e-07
+8.43026839e-07
+8.30956584e-07
+8.51521218e-07
+8.08483777e-07
+8.65925995e-07
+8.33250138e-07
+8.28284496e-07
+8.73776572e-07
+8.38510464e-07
+8.28632194e-07
+8.09711795e-07
+8.49183571e-07
+8.30543686e-07
+8.17439484e-07
+8.42996852e-07
+8.27332424e-07
+7.95474645e-07
+8.38821389e-07
+8.18422381e-07
+8.67781996e-07
+8.34306080e-07
+8.62643421e-07
+8.39091869e-07
+8.24763238e-07
+8.34118565e-07
+8.57731593e-07
+8.36592142e-07
+7.95114313e-07
+8.17264433e-07
+8.39596319e-07
+8.18310329e-07
+8.48630344e-07
+8.26344972e-07
+8.60484340e-07
+8.45985647e-07
+8.70553134e-07
+8.26359011e-07
+8.47635622e-07
+8.06935349e-07
+8.72584223e-07
+8.21073120e-07
+8.53524528e-07
+8.55063617e-07
+7.93166135e-07
+8.50049137e-07
+8.46240526e-07
+8.38888664e-07
+8.43896231e-07
+8.01417286e-07
+8.04036090e-07
+8.27304076e-07
+8.03839898e-07
+8.81956579e-07
+7.77497277e-07
+8.25554267e-07
+8.72099292e-07
+8.29348468e-07
+7.80885364e-07
+8.45029252e-07
+8.19071247e-07
+7.81016552e-07
+8.53830820e-07
+7.76643431e-07
+8.41413012e-07
+8.39542684e-07
+8.15182523e-07
+8.42446294e-07
+8.05508764e-07
+8.28653479e-07
+8.48237892e-07
+8.35619628e-07
+8.48376488e-07
+7.92092062e-07
+8.24761186e-07
+8.42801562e-07
+8.20756026e-07
+7.86830725e-07
+8.72004929e-07
+8.32383492e-07
+8.75126636e-07
+8.55566561e-07
+8.40490770e-07
+8.04921925e-07
+8.49795083e-07
+7.97727015e-07
+7.90452895e-07
+8.20998618e-07
+8.73576017e-07
+8.27194186e-07
+7.93541523e-07
+8.03096059e-07
+8.58979874e-07
+8.21342626e-07
+8.09624899e-07
+8.30888481e-07
+8.54577934e-07
+8.46139112e-07
+7.97506683e-07
+8.54607564e-07
+7.92674296e-07
+8.23091164e-07
+8.25611731e-07
+8.28728622e-07
+8.05257267e-07
+8.39800326e-07
+7.95321318e-07
+8.52143833e-07
+8.49058923e-07
+8.73247323e-07
+8.00562335e-07
+8.25532986e-07
+8.24892363e-07
+8.62414731e-07
+8.36519655e-07
+8.70534070e-07
+8.12557855e-07
+8.27145901e-07
+8.04447800e-07
+8.46606598e-07
+7.92704380e-07
+8.78772872e-07
+8.21769320e-07
+8.14441478e-07
+8.28537934e-07
+8.02411695e-07
+7.94555885e-07
+8.50909156e-07
+8.38352960e-07
+8.00736335e-07
+8.89516164e-07
+8.32677341e-07
+7.83085004e-07
+8.54455179e-07
+8.58380735e-07
+8.55579082e-07
+8.76584244e-07
+7.92620609e-07
+8.52654100e-07
+8.08562097e-07
+8.73788280e-07
+8.11087990e-07
+8.41922969e-07
+8.57377204e-07
+8.26609267e-07
+8.35133415e-07
+8.70790464e-07
+8.21265312e-07
+8.55359409e-07
+8.07401550e-07
+8.47239125e-07
+8.41529467e-07
+8.37939509e-07
+8.76858610e-07
+8.68737289e-07
+8.24385668e-07
+8.01212693e-07
+8.26363208e-07
+8.13206264e-07
+7.90543786e-07
+8.26714796e-07
+8.36197076e-07
+8.12665895e-07
+7.87146774e-07
+8.44103116e-07
+8.15092177e-07
+8.03773062e-07
+8.03338730e-07
+8.36252892e-07
+8.02562994e-07
+8.44489467e-07
+8.23399026e-07
+7.74994376e-07
+8.78739813e-07
+8.05341386e-07
+8.06922744e-07
+8.15410659e-07
+8.11021001e-07
+8.46158712e-07
+8.46175987e-07
+8.23155113e-07
+8.48322119e-07
+8.61013259e-07
+8.43909736e-07
+8.42876520e-07
+8.02745465e-07
+8.28788514e-07
+8.57017841e-07
+8.43644616e-07
+8.63289258e-07
+8.04470869e-07
+8.09809129e-07
+8.73554491e-07
+8.27383261e-07
+8.05231798e-07
+8.18958430e-07
+8.61895658e-07
+7.90250117e-07
+8.35633123e-07
+8.51585389e-07
+8.04734344e-07
+8.50823535e-07
+8.05810348e-07
+8.68487086e-07
+8.21501345e-07
+8.47180659e-07
+8.30521085e-07
+8.18877616e-07
+8.25750754e-07
+8.07126151e-07
+8.10968082e-07
+8.57967278e-07
+8.50136524e-07
+8.14231533e-07
+7.81519070e-07
+8.57513513e-07
+8.35722627e-07
+8.07423173e-07
+8.14488101e-07
+7.92244270e-07
+8.84565024e-07
+8.36654595e-07
+8.39548963e-07
+8.42354402e-07
+8.57308402e-07
+8.34345617e-07
+8.30832704e-07
+8.03839195e-07
+7.92488440e-07
+8.78535725e-07
+7.88215376e-07
+8.21504000e-07
+8.76381168e-07
+8.22174458e-07
+8.07835110e-07
+8.13539038e-07
+7.99824871e-07
+8.47868039e-07
+8.25478974e-07
+8.76524822e-07
+8.24085424e-07
+8.31246207e-07
+8.43513467e-07
+8.65022968e-07
+8.50401281e-07
+8.54304388e-07
+8.33479513e-07
+8.31316732e-07
+8.28174530e-07
+8.37139101e-07
+8.20521158e-07
+8.73631729e-07
+8.54470504e-07
+8.40358579e-07
+7.88302834e-07
+8.41261953e-07
+8.60595179e-07
+7.86856091e-07
+8.56374564e-07
+7.91880341e-07
+8.36794234e-07
+8.15214285e-07
+8.32717324e-07
+8.55206305e-07
+8.41459936e-07
+8.54660791e-07
+7.91695330e-07
+8.68900379e-07
+8.22391939e-07
+8.46029866e-07
+8.45514812e-07
+8.62434263e-07
+8.37764704e-07
+8.60620683e-07
+8.24439167e-07
+8.02765119e-07
+8.37125376e-07
+8.35290207e-07
+8.36185775e-07
+8.52247737e-07
+8.30269183e-07
+8.11661013e-07
+8.22475310e-07
+8.30544112e-07
+8.45710119e-07
+8.22000131e-07
+8.26043358e-07
+8.46268373e-07
+8.00224942e-07
+8.58332588e-07
+7.98796337e-07
+7.99934560e-07
+8.64030237e-07
+8.42018847e-07
+8.36829438e-07
+8.01751533e-07
+8.35637665e-07
+8.59529846e-07
+8.09173758e-07
+8.48578134e-07
+8.03398472e-07
+8.50345871e-07
+8.60479957e-07
+8.10185437e-07
+8.52196870e-07
+7.94926451e-07
+8.80587476e-07
+8.15581908e-07
+8.26123048e-07
+8.28590758e-07
+7.95345183e-07
+8.33817042e-07
+8.23995810e-07
+7.92310763e-07
+8.75383673e-07
+8.52714633e-07
+8.41475164e-07
+8.33853078e-07
+8.32883569e-07
+8.56647371e-07
+8.46210945e-07
+8.13506186e-07
+8.34761406e-07
+8.62597143e-07
+8.14344285e-07
+8.17653882e-07
+8.06449930e-07
+8.20061226e-07
+8.23802837e-07
+8.38370219e-07
+8.33517826e-07
+8.12507905e-07
+8.56161266e-07
+8.04586630e-07
+8.30028219e-07
+8.59362712e-07
+8.31055891e-07
+8.21148515e-07
+8.46892975e-07
+8.24849496e-07
+8.20681063e-07
+8.42341828e-07
+8.47827481e-07
+8.60146817e-07
+8.56685372e-07
+8.18403379e-07
+7.86851230e-07
+8.71008979e-07
+8.01478980e-07
+8.31455791e-07
+8.13458606e-07
+8.33810475e-07
+8.11023755e-07
+7.88560493e-07
+8.84956689e-07
+8.48175559e-07
+8.16848987e-07
+7.85479954e-07
+8.03958463e-07
+8.49120356e-07
+8.63461317e-07
+8.14031917e-07
+8.26412936e-07
+8.09261089e-07
+7.92693446e-07
+8.66702283e-07
+8.02281805e-07
+8.81980428e-07
+7.87979446e-07
+8.26390063e-07
+8.41445280e-07
+8.71606000e-07
+8.52780950e-07
+8.45711575e-07
+8.07759372e-07
+8.27499089e-07
+8.74788720e-07
+8.06092956e-07
+7.93832495e-07
+8.00508596e-07
+8.23254522e-07
+8.11589317e-07
+8.20531307e-07
+8.30362890e-07
+8.03505987e-07
+8.24409717e-07
+8.24496255e-07
+8.27554269e-07
+8.58015480e-07
+8.03881297e-07
+8.78713450e-07
+8.09091988e-07
+8.02273472e-07
+8.47040127e-07
+8.74757131e-07
+8.14225817e-07
+8.13348696e-07
+8.14965502e-07
+8.44080689e-07
+8.07661456e-07
+8.52306556e-07
+8.70880223e-07
+8.49095211e-07
+8.15880066e-07
+8.76670001e-07
+8.48957270e-07
+8.19059504e-07
+8.72419974e-07
+7.99427149e-07
+8.21053332e-07
+8.20980557e-07
+8.50125080e-07
+8.55534847e-07
+8.06452691e-07
+8.28791876e-07
+8.59530491e-07
+7.79087573e-07
+8.07909954e-07
+8.12719802e-07
+8.03053442e-07
+8.74956820e-07
+8.42979515e-07
+8.20447652e-07
+8.08702875e-07
+8.18393376e-07
+8.41361383e-07
+8.00785046e-07
+8.51202002e-07
+8.40053233e-07
+8.01040248e-07
+8.54045535e-07
+8.65379709e-07
+8.18405159e-07
+8.31575604e-07
+8.05217511e-07
+7.86965233e-07
+8.09700199e-07
+8.30352737e-07
+8.08755606e-07
+8.55990499e-07
+8.08241074e-07
+8.79736993e-07
+8.48105107e-07
+7.77140182e-07
+8.27727386e-07
+8.12198906e-07
+8.67035934e-07
+8.36312309e-07
+8.25249068e-07
+8.36829257e-07
+8.69994058e-07
+8.42744272e-07
+8.40872905e-07
+8.00018497e-07
+8.36952406e-07
+8.02258583e-07
+8.28289795e-07
+7.81313442e-07
+8.65363366e-07
+7.94437868e-07
+8.36338066e-07
+8.46400663e-07
+8.17457948e-07
+8.33404048e-07
+8.58587407e-07
+8.42307950e-07
+8.52691881e-07
+7.97297388e-07
+8.33809931e-07
+8.76639519e-07
+8.82131821e-07
+8.01451057e-07
+8.78530072e-07
+8.14516046e-07
+7.97823415e-07
+8.26183291e-07
+8.04993229e-07
+8.06161962e-07
+8.55372170e-07
+8.30522796e-07
+8.05613859e-07
+7.85895730e-07
+8.27405982e-07
+8.23957900e-07
+8.24266706e-07
+7.87983301e-07
+8.30279110e-07
+8.44246837e-07
+8.36370984e-07
+8.50423401e-07
+8.43322951e-07
+8.25216794e-07
+8.04815205e-07
+8.57171433e-07
+8.26533773e-07
+7.87314832e-07
+8.54202115e-07
+8.49549097e-07
+8.16559794e-07
+8.10180745e-07
+8.31238789e-07
+8.60052643e-07
+8.16873957e-07
+8.86051623e-07
+8.07194473e-07
+8.69947017e-07
+7.78711620e-07
+8.23147595e-07
+8.31786043e-07
+8.51824241e-07
+8.28731982e-07
+7.82491979e-07
+8.24817335e-07
+8.09608445e-07
+8.50412640e-07
+8.52381546e-07
+8.22192467e-07
+8.08687361e-07
+8.50663626e-07
+8.13044370e-07
+8.18419333e-07
+8.01795313e-07
+8.23731563e-07
+8.48541421e-07
+8.31068615e-07
+8.14722643e-07
+8.75031353e-07
+8.49105424e-07
+8.72519619e-07
+8.06364509e-07
+8.37710814e-07
+8.30321704e-07
+8.53183116e-07
+8.44458133e-07
+8.51954657e-07
+8.56878933e-07
+8.05560433e-07
+8.01977149e-07
+8.19580246e-07
+8.14104726e-07
+8.23621863e-07
+8.50640191e-07
+7.77827518e-07
+8.15424464e-07
+7.85507830e-07
+8.81592698e-07
+8.10042010e-07
+8.35618876e-07
+8.23078534e-07
+8.06474164e-07
+8.26119711e-07
+8.52320747e-07
+8.34263643e-07
+8.12822844e-07
+8.22946369e-07
+7.94886732e-07
+8.41749034e-07
+8.09423959e-07
+8.37761968e-07
+7.97266815e-07
+8.15626258e-07
+8.60965125e-07
+8.70097923e-07
+8.28265658e-07
+8.33498829e-07
+8.60150696e-07
+8.71957529e-07
+7.83441453e-07
+8.30515693e-07
+8.30382117e-07
+8.18201372e-07
+8.24867100e-07
+8.78916875e-07
+8.10558216e-07
+8.30769841e-07
+8.50108106e-07
+8.20257505e-07
+8.51162090e-07
+8.72524386e-07
+8.40710168e-07
+8.40126870e-07
+8.49628857e-07
+7.88427953e-07
+8.60394721e-07
+8.17468183e-07
+8.08760190e-07
+8.17909700e-07
+8.16066691e-07
+8.33787473e-07
+8.07213433e-07
+8.34213643e-07
+7.98328195e-07
+8.39057222e-07
+8.79944106e-07
+7.98612177e-07
+7.98374272e-07
+8.84552496e-07
+8.54510433e-07
+8.09549714e-07
+7.99882205e-07
+8.25355871e-07
+7.93784184e-07
+8.55627312e-07
+7.99202397e-07
+8.49061759e-07
+8.95840178e-07
+8.17801390e-07
+8.14736131e-07
+8.49923389e-07
+8.21775290e-07
+8.22038440e-07
+8.45524970e-07
+8.39984026e-07
+8.63609705e-07
+8.41841733e-07
+8.27731289e-07
+8.65326058e-07
+8.30621893e-07
+8.28885437e-07
+8.19345824e-07
+8.21325441e-07
+8.29948230e-07
+8.17393531e-07
+8.88310075e-07
+8.01901367e-07
+8.74170996e-07
+8.22913025e-07
+8.33082697e-07
+8.16310802e-07
+8.81858007e-07
+8.43811552e-07
+8.41876573e-07
+8.40675574e-07
+8.23562384e-07
+8.05674112e-07
+8.62594557e-07
+8.25808194e-07
+8.60864671e-07
+8.44757399e-07
+8.00018767e-07
+8.49658288e-07
+7.88837711e-07
+8.17624286e-07
+8.01836940e-07
+8.27002738e-07
+8.71466939e-07
+8.59629795e-07
+8.29877968e-07
+8.02945834e-07
+8.38138846e-07
+8.16252709e-07
+8.44544430e-07
+8.33374820e-07
+8.50695319e-07
+8.22498927e-07
+8.13644456e-07
+8.30169310e-07
+8.46012002e-07
+8.34510788e-07
+8.37090759e-07
+8.23584275e-07
+8.46566545e-07
+8.29253790e-07
+8.45616864e-07
+8.44595718e-07
+8.46663631e-07
+8.60249915e-07
+8.20310268e-07
+8.32271089e-07
+8.40952375e-07
+7.99464719e-07
+8.75842524e-07
+7.93574138e-07
+8.26831630e-07
+8.59730762e-07
+8.63838860e-07
+8.04137319e-07
+8.18722668e-07
+8.40739659e-07
+8.40817484e-07
+8.71690415e-07
+8.39062343e-07
+8.24829931e-07
+8.07929044e-07
+8.30098340e-07
+8.32051031e-07
+8.20172308e-07
+7.80325298e-07
+8.40600532e-07
+8.09411572e-07
+8.31409282e-07
+8.46236056e-07
+8.69250031e-07
+8.59382672e-07
+8.53781406e-07
+7.86063242e-07
+8.81115169e-07
+8.22227676e-07
+7.96975938e-07
+8.07486944e-07
+8.24227398e-07
+8.35973382e-07
+8.67006766e-07
+8.59213719e-07
+7.85235899e-07
+8.38560061e-07
+8.00444105e-07
+7.97426518e-07
+7.85935137e-07
+8.58441517e-07
+7.95894684e-07
+7.87715996e-07
+8.59147569e-07
+8.10848354e-07
+8.66335321e-07
+7.90753397e-07
+8.47744874e-07
+8.69575433e-07
+8.20596557e-07
+8.51187542e-07
+8.24044120e-07
+8.41367870e-07
+8.43587024e-07
+8.31914011e-07
+8.55672155e-07
+8.49876356e-07
+8.60260086e-07
+8.19286254e-07
+8.36817396e-07
+8.38697850e-07
+8.03574377e-07
+8.29063570e-07
+8.03912434e-07
+8.59189185e-07
+8.32667059e-07
+8.18250457e-07
+8.16198302e-07
+8.40051576e-07
+8.22809660e-07
+8.60792884e-07
+8.72717352e-07
+8.25360464e-07
+8.28815747e-07
+8.19235513e-07
+8.41859107e-07
+7.84362707e-07
+8.12038482e-07
+8.17499770e-07
+8.68308344e-07
+8.19030113e-07
+8.55494651e-07
+7.96735318e-07
+8.51942968e-07
+8.54816285e-07
+8.66327405e-07
+8.76564079e-07
+7.98114807e-07
+8.57985889e-07
+8.25152445e-07
+8.29181678e-07
+8.62486614e-07
+8.66252512e-07
+8.41079963e-07
+8.52329955e-07
+8.40286565e-07
+8.53491837e-07
+7.99805926e-07
+8.30516215e-07
+8.05684113e-07
+8.51817786e-07
+8.30994385e-07
+8.39493842e-07
+8.17589282e-07
+8.83505861e-07
+8.22461776e-07
+8.36947481e-07
+8.11662748e-07
+8.27317315e-07
+8.31901617e-07
+8.16603903e-07
+8.58711522e-07
+8.53453722e-07
+8.66467868e-07
+8.36941701e-07
+8.69327984e-07
+8.29795952e-07
+8.26042277e-07
+8.67146000e-07
+8.54249114e-07
+8.23913545e-07
+8.22764315e-07
+8.29721921e-07
+7.73959609e-07
+8.14823948e-07
+7.97024588e-07
+8.25061294e-07
+8.04935102e-07
+8.28811465e-07
+8.43807815e-07
+8.66906224e-07
+8.31563053e-07
+8.71343165e-07
+8.33904504e-07
+7.99909775e-07
+8.57185796e-07
+8.06925993e-07
+8.34449712e-07
+7.84160639e-07
+8.36854264e-07
+8.01804952e-07
+8.57149079e-07
+8.50332152e-07
+8.76453768e-07
+8.59038528e-07
+8.51346075e-07
+7.92759079e-07
+8.18077586e-07
+8.56040725e-07
+8.13662155e-07
+8.41952158e-07
+8.42736995e-07
+8.26551962e-07
+8.14608944e-07
+8.55386705e-07
+8.59181917e-07
+8.36710452e-07
+7.88855501e-07
+8.19181811e-07
+7.97570454e-07
+8.10050465e-07
+8.33514429e-07
+8.08046178e-07
+8.81541260e-07
+8.32570783e-07
+7.86367146e-07
+8.14079028e-07
+8.32751924e-07
+8.17698394e-07
+8.16298838e-07
+7.85456789e-07
+8.30852619e-07
+8.24555974e-07
+8.69890280e-07
+8.65444107e-07
+8.32438292e-07
+8.37077182e-07
+8.34017344e-07
+7.83042356e-07
+8.01322947e-07
+8.49223975e-07
+8.14471144e-07
+8.42968046e-07
+7.90346148e-07
+8.37139130e-07
+8.29749268e-07
+8.27002601e-07
+8.04910453e-07
+8.04478862e-07
+8.05886668e-07
+8.31238870e-07
+8.29755762e-07
+8.35622189e-07
+8.22464443e-07
+8.26552967e-07
+7.94277163e-07
+8.55267154e-07
+8.36092785e-07
+8.05737810e-07
+8.59008953e-07
+8.10455928e-07
+8.30747259e-07
+8.04132073e-07
+8.25324385e-07
+7.84330956e-07
+8.51650007e-07
+7.96928708e-07
+7.96579641e-07
+8.38809001e-07
+8.35063202e-07
+8.00753502e-07
+8.66463352e-07
+8.58400351e-07
+8.40215745e-07
+8.25597007e-07
+8.28416524e-07
+8.35257767e-07
+8.51784744e-07
+8.24740816e-07
+8.62964456e-07
+8.56453380e-07
+8.61709456e-07
+8.53743897e-07
+8.54900186e-07
+8.13705485e-07
+8.20058008e-07
+8.33996159e-07
+8.33050785e-07
+8.34359560e-07
+7.92711569e-07
+8.32809405e-07
+8.27743285e-07
+7.98197879e-07
+8.20028597e-07
+7.94350039e-07
+8.20771826e-07
+8.43975281e-07
+8.03190617e-07
+7.72556590e-07
+8.43892721e-07
+8.43756964e-07
+8.74757081e-07
+8.40699654e-07
+8.11964835e-07
+8.22193514e-07
+8.61282931e-07
+8.63938083e-07
+7.95763992e-07
+8.46178918e-07
+8.28694125e-07
+8.22468103e-07
+8.21928293e-07
+8.02256457e-07
+8.72958396e-07
+8.31624115e-07
+8.53972891e-07
+8.66557226e-07
+8.48782198e-07
+8.22488462e-07
+8.01781087e-07
+8.86537769e-07
+7.94210721e-07
+7.95578514e-07
+8.65548601e-07
+8.56424517e-07
+8.68769479e-07
+8.68272260e-07
+8.43401387e-07
+7.91393380e-07
+8.41514980e-07
+8.42421990e-07
+8.37008790e-07
+8.46810500e-07
+8.32213489e-07
+8.32712446e-07
+8.17602173e-07
+7.99108343e-07
+8.13832714e-07
+8.56838965e-07
+8.14169404e-07
+8.69785482e-07
+8.31239926e-07
+8.62453820e-07
+8.72466450e-07
+8.27158140e-07
+8.06071193e-07
+8.20458111e-07
+8.20681618e-07
+8.59637426e-07
+8.25769084e-07
+8.42219458e-07
+8.08151487e-07
+8.17413728e-07
+8.38416758e-07
+8.40042763e-07
+7.94196089e-07
+8.20458616e-07
+7.88440156e-07
+8.32712858e-07
+8.75043760e-07
+8.26772433e-07
+8.32786581e-07
+8.37839654e-07
+8.41143862e-07
+8.39907001e-07
+8.08728938e-07
+8.52494987e-07
+8.75320231e-07
+8.63913368e-07
+8.29984838e-07
+8.31241043e-07
+8.10212980e-07
+8.88390349e-07
+8.49674591e-07
+8.58276543e-07
+7.89740721e-07
